<svg width="231" height="103" viewBox="0 0 231 103" fill="none" xmlns="http://www.w3.org/2000/svg">
<path d="M7 3.5C7 5.433 5.433 7 3.5 7C1.567 7 0 5.433 0 3.5C0 1.567 1.567 0 3.5 0C5.433 0 7 1.567 7 3.5Z" fill="#1490C5"/>
<path d="M7 35.5C7 37.433 5.433 39 3.5 39C1.567 39 0 37.433 0 35.5C0 33.567 1.567 32 3.5 32C5.433 32 7 33.567 7 35.5Z" fill="#1490C5"/>
<path d="M39 3.5C39 5.433 37.433 7 35.5 7C33.567 7 32 5.433 32 3.5C32 1.567 33.567 0 35.5 0C37.433 0 39 1.567 39 3.5Z" fill="#1490C5"/>
<path d="M39 35.5C39 37.433 37.433 39 35.5 39C33.567 39 32 37.433 32 35.5C32 33.567 33.567 32 35.5 32C37.433 32 39 33.567 39 35.5Z" fill="#1490C5"/>
<path d="M71 3.5C71 5.433 69.433 7 67.5 7C65.567 7 64 5.433 64 3.5C64 1.567 65.567 0 67.5 0C69.433 0 71 1.567 71 3.5Z" fill="#1490C5"/>
<path d="M71 35.5C71 37.433 69.433 39 67.5 39C65.567 39 64 37.433 64 35.5C64 33.567 65.567 32 67.5 32C69.433 32 71 33.567 71 35.5Z" fill="#1490C5"/>
<path d="M103 3.5C103 5.433 101.433 7 99.5 7C97.567 7 96 5.433 96 3.5C96 1.567 97.567 0 99.5 0C101.433 0 103 1.567 103 3.5Z" fill="#1490C5"/>
<path d="M103 35.5C103 37.433 101.433 39 99.5 39C97.567 39 96 37.433 96 35.5C96 33.567 97.567 32 99.5 32C101.433 32 103 33.567 103 35.5Z" fill="#1490C5"/>
<path d="M7 67.5C7 69.433 5.433 71 3.5 71C1.567 71 0 69.433 0 67.5C0 65.567 1.567 64 3.5 64C5.433 64 7 65.567 7 67.5Z" fill="#1490C5"/>
<path d="M7 99.5C7 101.433 5.433 103 3.5 103C1.567 103 0 101.433 0 99.5C0 97.567 1.567 96 3.5 96C5.433 96 7 97.567 7 99.5Z" fill="#1490C5"/>
<path d="M39 67.5C39 69.433 37.433 71 35.5 71C33.567 71 32 69.433 32 67.5C32 65.567 33.567 64 35.5 64C37.433 64 39 65.567 39 67.5Z" fill="#1490C5"/>
<path d="M39 99.5C39 101.433 37.433 103 35.5 103C33.567 103 32 101.433 32 99.5C32 97.567 33.567 96 35.5 96C37.433 96 39 97.567 39 99.5Z" fill="#1490C5"/>
<path d="M71 67.5C71 69.433 69.433 71 67.5 71C65.567 71 64 69.433 64 67.5C64 65.567 65.567 64 67.5 64C69.433 64 71 65.567 71 67.5Z" fill="#1490C5"/>
<path d="M71 99.5C71 101.433 69.433 103 67.5 103C65.567 103 64 101.433 64 99.5C64 97.567 65.567 96 67.5 96C69.433 96 71 97.567 71 99.5Z" fill="#1490C5"/>
<path d="M103 67.5C103 69.433 101.433 71 99.5 71C97.567 71 96 69.433 96 67.5C96 65.567 97.567 64 99.5 64C101.433 64 103 65.567 103 67.5Z" fill="#1490C5"/>
<path d="M103 99.5C103 101.433 101.433 103 99.5 103C97.567 103 96 101.433 96 99.5C96 97.567 97.567 96 99.5 96C101.433 96 103 97.567 103 99.5Z" fill="#1490C5"/>
<path d="M135 3.5C135 5.433 133.433 7 131.5 7C129.567 7 128 5.433 128 3.5C128 1.567 129.567 0 131.5 0C133.433 0 135 1.567 135 3.5Z" fill="#1490C5"/>
<path d="M135 35.5C135 37.433 133.433 39 131.5 39C129.567 39 128 37.433 128 35.5C128 33.567 129.567 32 131.5 32C133.433 32 135 33.567 135 35.5Z" fill="#1490C5"/>
<path d="M167 3.5C167 5.433 165.433 7 163.5 7C161.567 7 160 5.433 160 3.5C160 1.567 161.567 0 163.5 0C165.433 0 167 1.567 167 3.5Z" fill="#1490C5"/>
<path d="M167 35.5C167 37.433 165.433 39 163.5 39C161.567 39 160 37.433 160 35.5C160 33.567 161.567 32 163.5 32C165.433 32 167 33.567 167 35.5Z" fill="#1490C5"/>
<path d="M199 3.5C199 5.433 197.433 7 195.5 7C193.567 7 192 5.433 192 3.5C192 1.567 193.567 0 195.5 0C197.433 0 199 1.567 199 3.5Z" fill="#1490C5"/>
<path d="M199 35.5C199 37.433 197.433 39 195.5 39C193.567 39 192 37.433 192 35.5C192 33.567 193.567 32 195.5 32C197.433 32 199 33.567 199 35.5Z" fill="#1490C5"/>
<path d="M231 3.5C231 5.433 229.433 7 227.5 7C225.567 7 224 5.433 224 3.5C224 1.567 225.567 0 227.5 0C229.433 0 231 1.567 231 3.5Z" fill="#1490C5"/>
<path d="M231 35.5C231 37.433 229.433 39 227.5 39C225.567 39 224 37.433 224 35.5C224 33.567 225.567 32 227.5 32C229.433 32 231 33.567 231 35.5Z" fill="#1490C5"/>
<path d="M135 67.5C135 69.433 133.433 71 131.5 71C129.567 71 128 69.433 128 67.5C128 65.567 129.567 64 131.5 64C133.433 64 135 65.567 135 67.5Z" fill="#1490C5"/>
<path d="M135 99.5C135 101.433 133.433 103 131.5 103C129.567 103 128 101.433 128 99.5C128 97.567 129.567 96 131.5 96C133.433 96 135 97.567 135 99.5Z" fill="#1490C5"/>
<path d="M167 67.5C167 69.433 165.433 71 163.5 71C161.567 71 160 69.433 160 67.5C160 65.567 161.567 64 163.5 64C165.433 64 167 65.567 167 67.5Z" fill="#1490C5"/>
<path d="M167 99.5C167 101.433 165.433 103 163.5 103C161.567 103 160 101.433 160 99.5C160 97.567 161.567 96 163.5 96C165.433 96 167 97.567 167 99.5Z" fill="#1490C5"/>
<path d="M199 67.5C199 69.433 197.433 71 195.5 71C193.567 71 192 69.433 192 67.5C192 65.567 193.567 64 195.5 64C197.433 64 199 65.567 199 67.5Z" fill="#1490C5"/>
<path d="M199 99.5C199 101.433 197.433 103 195.5 103C193.567 103 192 101.433 192 99.5C192 97.567 193.567 96 195.5 96C197.433 96 199 97.567 199 99.5Z" fill="#1490C5"/>
<path d="M231 67.5C231 69.433 229.433 71 227.5 71C225.567 71 224 69.433 224 67.5C224 65.567 225.567 64 227.5 64C229.433 64 231 65.567 231 67.5Z" fill="#1490C5"/>
<path d="M231 99.5C231 101.433 229.433 103 227.5 103C225.567 103 224 101.433 224 99.5C224 97.567 225.567 96 227.5 96C229.433 96 231 97.567 231 99.5Z" fill="#1490C5"/>
</svg>
